Call the REF Impact Case Studies API — ref_get • rOpenSci: refimpact
…
#>   CaseStudyId Continent Country Funders ImpactDetails ImpactSummary ImpactType
#>   <chr>       <list>    <list>  <list>  <chr>         <chr>         <chr>     
#> 1 32987       <df[,2] … <df[,2… <chr [… "\r    Impac… "\r    `Cold… Cultural  
#> 2 32989       <df[,2] … <df[,2… <chr [… "\n    Kenna… "\n    Peter… Cultural  
#> 3 32990       <df[,2] … <df[,2… <chr [… "\r    Impac… "\r    Resea… Cultural  
#> 4 44130       <df[,2] … <df[,2… <chr [… "\r    Build… "\r    Desig… Societal  
#> 5 44131       <df[,2] … <df[,2… <chr [… "\r    The R… "\r    A sus… Societal  
#> 6 44132       <df[,2] … <df[,2… <chr [… "\r    Dunne… "\r    Dunne… Societal  
#> 7 44133       <df[,2] … <df[,2… <chr [… "\r    Impac… "\r    Vehic… Societal  
#> # … with 12 more variables: Institution <chr>, Institutions <list>,
#> #   Panel <chr>, PlaceName <list>, References <chr>,
#> #   ResearchSubjectAreas <list>, Sources <chr>, Title <chr>, UKLocation <list>,
#> #   UKRegion <list>, UOA <chr>, UnderpinningResearch <chr>
ref_get("SearchCaseStudies", query = list(UoA    = 5))
#> # A tibble: 257 x 19
#>    CaseStudyId Continent Country Funders ImpactDetails ImpactSummary ImpactType
#>    <chr>       <list>    <list>  <list>  <chr>         <chr>         <chr>     
#>  1 2372        <df[,2] … <df[,2… <chr [… "\r\n    Imp… "\r\n    For… Technolog…
#>  2 2373        <df[,2] … <df[,2… <chr [… "\r\n    Res… "\r\n    Rel… Technolog…
#>  3 2374        <df[,2] … <df[,2… <chr [… "\r\n    Wee… "\r\n    Dec… Environme…
#>  4 2375        <df[,2] … <df[,2… <chr [… "\n    Impac… "\n    Since… Environme…
#>  5 2376        <df[,2] … <df[,2… <chr [… "\r\n    a) … "\r\n    A n… Environme…
#>  6 3140        <df[,2] … <df[,2… <chr [… "\n    Shapi… "\n    Durin… Environme…
#>  7 3141        <df[,0] … <df[,0… <chr [… "\n    Over … "\n    New a… Environme…
#>  8 3143        <df[,2] … <df[,2… <chr [… "\r\n    The… "\r\n    By … Technolog…
#>  9 3144        <df[,2] … <df[,2… <chr [… "\r\n    Car… "\r\n    Pro… Technolog…
#> 10 3145        <df[,2] … <df[,2… <chr [… "\n    The V… "\n    Cytom… Health    
#> # … with 247 more rows, and 12 more variables: Institution <chr>,
#> #   Institutions <list>, Panel <chr>, PlaceName <list>, References <chr>,
#> #   ResearchSubjectAreas <list>, Sources <chr>, Title <chr>, UKLocation <list>,
#> #   UKRegion <list>, UOA <chr>, UnderpinningResearch <chr>
ref_get("SearchCaseStudies", query = list(tags   = c(11280, 5085)))
#> # A tibble: 24 x 19
#>    CaseStudyId Continent Country Funders ImpactDetails ImpactSummary ImpactType
#>    <chr>       <list>    <list>  <list>  <chr>         <chr>         <chr>     
#>  1 590         <df[,2] … <df[,2… <chr [… "\r\n    Wyl… "\r\n    Wyl… Societal  
#>  2 1919        <df[,2] … <df[,2… <chr [… "\r\n    Imp… "\r\n    Eme… Societal  
#>  3 3682        <df[,2] … <df[,2… <chr [… "\r\n    Rob… "\r\n    Pro… Societal  
#>  4 3684        <df[,2] … <df[,2… <chr [… "\r\n    In … "\r\n    Res… Societal  
#>  5 4886        <df[,2] … <df[,2… <chr [… "\n    Rob J… "\n    Over … Societal  
#>  6 6367        <df[,2] … <df[,2… <chr [… "\n    Dyer'… "\n    The g… Societal  
#>  7 7261        <df[,2] … <df[,2… <chr [… "\r\n    Our… "\r\n    The… Societal  
#>  8 28201       <df[,2] … <df[,2… <chr [… "\n    See s… "\n    Appro… Societal  
#>  9 36246       <df[,2] … <df[,2… <chr [… "\n    Influ… "\n    Since… Societal  
#> 10 40298       <df[,2] … <df[,2… <chr [… "\r\n    The… "\r\n    The… Societal  
#> # … with 14 more rows, and 12 more variables: Institution <chr>,
#> #   Institutions <list>, Panel <chr>, PlaceName <list>, References <chr>,
#> #   ResearchSubjectAreas <list>, Sources <chr>, Title <chr>, UKLocation <list>,
#> #   UKRegion <list>, UOA <chr>, UnderpinningResearch <chr>
…
